Tue Dec 31 09:20:37 2019
COPYRIGHT (C) B&R Industrial Automation GmbH

Tue Dec 31 09:20:37 2019
No ARsim registration found!

Tue Dec 31 09:20:37 2019
InstanceName: 01d5bfe578c96c20

Tue Dec 31 09:20:37 2019
WorkingDirectory: C:\repos\DellEMC\im3568_PalletLift\Temp\Simulation\X20CP0483\X20CP0483\

Tue Dec 31 09:20:37 2019
COMMAND_COLDSTART

Tue Dec 31 09:20:39 2019
Version: D4.52

Tue Dec 31 09:20:48 2019
COMMAND_TERMINATE

Tue Dec 31 09:20:50 2019
COMMAND_COLDSTART

Tue Dec 31 09:20:52 2019
Version: D4.52

Tue Dec 31 11:33:51 2019
COMMAND_TERMINATE

